{
  "IcoMoonType": "selection",
  "icons": [
    {
      "icon": {
        "paths": [
          "M410.947 296.421c0-47.158 6.737-94.316 20.211-134.737h-296.421c-74.105 0-134.737 60.632-134.737 134.737v592.842c0 74.105 60.632 134.737 134.737 134.737h592.842c74.105 0 134.737-60.632 134.737-134.737v-188.632c-13.474 0-26.947 0-40.421 0-229.053-0-410.947-181.895-410.947-404.211zM262.737 842.105c-53.895 0-94.316-40.421-94.316-94.316s40.421-94.316 94.316-94.316c53.895 0 94.316 40.421 94.316 94.316s-47.158 94.316-94.316 94.316zM262.737 532.211c-53.895 0-94.316-40.421-94.316-94.316s40.421-94.316 94.316-94.316c53.895 0 94.316 40.421 94.316 94.316s-47.158 94.316-94.316 94.316zM821.895 0c-168.421 0-296.421 134.737-296.421 296.421s134.737 296.421 296.421 296.421c161.684 0 296.421-134.737 296.421-296.421s-134.737-296.421-296.421-296.421zM922.947 437.895l-154.947-114.526 26.947-242.526h47.158l20.211 202.105 94.316 121.263-33.684 33.684z"
        ],
        "attrs": [],
        "width": 1118,
        "isMulticolor": false,
        "isMulticolor2": false,
        "grid": 24,
        "tags": [
          "timeline"
        ],
        "colorPermutations": {}
      },
      "attrs": [],
      "properties": {
        "order": 118,
        "id": 62,
        "name": "timeline",
        "prevSize": 24,
        "code": 59673
      },
      "setIdx": 0,
      "setId": 1,
      "iconIdx": 0
    },
    {
      "icon": {
        "paths": [
          "M884.364 0v116.364h-139.636v-116.364h-403.394v116.364h-139.636v-116.364h-201.697v1016.242h1086.061v-1016.242h-201.697zM954.182 884.364h-814.545v-480.97h814.545v480.97zM240.485 473.212h139.636v131.879h-139.636v-131.879zM240.485 674.909h139.636v139.636h-139.636v-139.636zM473.212 473.212h139.636v131.879h-139.636v-131.879zM473.212 674.909h139.636v139.636h-139.636v-139.636zM705.939 473.212h139.636v131.879h-139.636v-131.879zM705.939 674.909h139.636v139.636h-139.636v-139.636z"
        ],
        "attrs": [],
        "width": 1086,
        "isMulticolor": false,
        "isMulticolor2": false,
        "grid": 24,
        "tags": [
          "Calendar"
        ],
        "colorPermutations": {}
      },
      "attrs": [],
      "properties": {
        "order": 58,
        "id": 61,
        "name": "Calendar",
        "prevSize": 24,
        "code": 59658
      },
      "setIdx": 0,
      "setId": 1,
      "iconIdx": 1
    },
    {
      "icon": {
        "paths": [
          "M408 648c40-8 104-8 160-8 48 0 120 0 160 8 176 24 408 112 408 248v128h-1136v-128c0-136 232-224 408-248zM1168 168v192h192v80h-192v200h-80v-192h-192v-80h192v-200h80zM552 512c-144 0-256-112-256-256s112-256 256-256 256 112 256 256-112 256-256 256z"
        ],
        "attrs": [],
        "width": 1360,
        "isMulticolor": false,
        "isMulticolor2": false,
        "grid": 24,
        "tags": [
          "add new contact"
        ],
        "colorPermutations": {}
      },
      "attrs": [],
      "properties": {
        "order": 59,
        "id": 60,
        "name": "add-new-contact",
        "prevSize": 24,
        "code": 59659
      },
      "setIdx": 0,
      "setId": 1,
      "iconIdx": 2
    },
    {
      "icon": {
        "paths": [
          "M597.333 0h-170.667v426.667h-426.667v170.667h426.667v426.667h170.667v-426.667h426.667v-170.667h-426.667v-426.667z"
        ],
        "attrs": [],
        "isMulticolor": false,
        "isMulticolor2": false,
        "grid": 24,
        "tags": [
          "Add"
        ],
        "colorPermutations": {}
      },
      "attrs": [],
      "properties": {
        "order": 60,
        "id": 59,
        "name": "Add",
        "prevSize": 24,
        "code": 59660
      },
      "setIdx": 0,
      "setId": 1,
      "iconIdx": 3
    },
    {
      "icon": {
        "paths": [
          "M962.56 744.107v-129.707c0-204.8-136.533-375.467-320.853-430.080v-20.48c0-68.267-54.613-129.707-129.707-129.707-68.267 0-129.707 54.613-129.707 129.707v20.48c-184.32 54.613-320.853 225.28-320.853 430.080v129.707h-61.44v129.707h382.293c0 68.267 54.613 129.707 129.707 129.707 68.267 0 129.707-54.613 129.707-129.707h382.293v-129.707h-61.44z"
        ],
        "attrs": [],
        "isMulticolor": false,
        "isMulticolor2": false,
        "grid": 24,
        "tags": [
          "Bell"
        ],
        "colorPermutations": {}
      },
      "attrs": [],
      "properties": {
        "order": 61,
        "id": 58,
        "name": "Bell",
        "prevSize": 24,
        "code": 59661
      },
      "setIdx": 0,
      "setId": 1,
      "iconIdx": 4
    },
    {
      "icon": {
        "paths": [
          "M512 32l-512 384v576h1024v-576l-512-384zM512 640l-300.8-224 300.8-224 300.8 224-300.8 224z"
        ],
        "attrs": [],
        "isMulticolor": false,
        "isMulticolor2": false,
        "grid": 24,
        "tags": [
          "letter"
        ],
        "colorPermutations": {}
      },
      "attrs": [],
      "properties": {
        "order": 62,
        "id": 56,
        "name": "letter",
        "prevSize": 24,
        "code": 59662
      },
      "setIdx": 0,
      "setId": 1,
      "iconIdx": 5
    },
    {
      "icon": {
        "paths": [
          "M0 1024l598.361-129.542 407.133-407.133c24.675-24.675 24.675-61.687 0-86.361l-382.458-382.458c-24.675-24.675-61.687-24.675-86.361 0l-407.133 407.133-129.542 598.361zM542.843 789.59l-259.084 55.518-111.036-104.867 55.518-259.084 314.602 308.434z"
        ],
        "attrs": [],
        "isMulticolor": false,
        "isMulticolor2": false,
        "grid": 24,
        "tags": [
          "Pencil"
        ],
        "colorPermutations": {}
      },
      "attrs": [],
      "properties": {
        "order": 63,
        "id": 55,
        "name": "Pencil",
        "prevSize": 24,
        "code": 59663
      },
      "setIdx": 0,
      "setId": 1,
      "iconIdx": 6
    },
    {
      "icon": {
        "paths": [
          "M704 640l-134.4 64c-51.2-25.6-96-64-140.8-108.8s-83.2-89.6-115.2-140.8l70.4-134.4-64-320h-320v44.8c0 256 102.4 505.6 288 691.2s435.2 288 691.2 288h44.8v-320l-320-64z"
        ],
        "attrs": [
          {}
        ],
        "isMulticolor": false,
        "isMulticolor2": false,
        "grid": 24,
        "tags": [
          "Phone"
        ],
        "colorPermutations": {
          "1271431641191204220122122523112411724012512234812550311255204120125525525513443581698088179891061": [
            {}
          ]
        }
      },
      "attrs": [
        {}
      ],
      "properties": {
        "order": 64,
        "id": 54,
        "name": "Phone",
        "prevSize": 24,
        "code": 59665
      },
      "setIdx": 0,
      "setId": 1,
      "iconIdx": 7
    },
    {
      "icon": {
        "paths": [
          "M133.565 133.565c-170.667 170.667-170.667 452.638 0 630.725 140.986 140.986 356.174 170.667 526.841 74.203l259.71 185.507 103.884-103.884-185.507-259.71c89.043-170.667 66.783-385.855-74.203-526.841-178.087-178.087-460.058-178.087-630.725-0zM652.986 652.986v0c-118.725 118.725-304.232 118.725-422.957 0s-118.725-304.232 0-422.957c118.725-118.725 304.232-118.725 422.957 0s118.725 311.652 0 422.957v0z"
        ],
        "attrs": [
          {}
        ],
        "isMulticolor": false,
        "isMulticolor2": false,
        "grid": 24,
        "tags": [
          "Search"
        ],
        "colorPermutations": {
          "1271431641191204220122122523112411724012512234812550311255204120125525525513443581698088179891061": [
            {}
          ]
        }
      },
      "attrs": [
        {}
      ],
      "properties": {
        "order": 65,
        "id": 53,
        "name": "Search",
        "prevSize": 24,
        "code": 59666
      },
      "setIdx": 0,
      "setId": 1,
      "iconIdx": 8
    },
    {
      "icon": {
        "paths": [
          "M512 0v128c-211.2 0-384 172.8-384 384h-128c0 281.6 230.4 512 512 512s512-230.4 512-512-230.4-512-512-512zM512 768c-140.8 0-256-115.2-256-256s115.2-256 256-256 256 115.2 256 256-115.2 256-256 256z"
        ],
        "attrs": [
          {}
        ],
        "isMulticolor": false,
        "isMulticolor2": false,
        "grid": 24,
        "tags": [
          "Stats"
        ],
        "colorPermutations": {
          "1271431641191204220122122523112411724012512234812550311255204120125525525513443581698088179891061": [
            {}
          ]
        }
      },
      "attrs": [
        {}
      ],
      "properties": {
        "order": 66,
        "id": 52,
        "name": "Stats",
        "prevSize": 24,
        "code": 59667
      },
      "setIdx": 0,
      "setId": 1,
      "iconIdx": 9
    },
    {
      "icon": {
        "paths": [
          "M512 0c-281.6 0-512 230.4-512 512s230.4 512 512 512 512-230.4 512-512-230.4-512-512-512zM691.2 755.2l-268.8-204.8 44.8-422.4h83.2l38.4 352 160 211.2-57.6 64z"
        ],
        "attrs": [],
        "isMulticolor": false,
        "isMulticolor2": false,
        "grid": 24,
        "tags": [
          "Time"
        ],
        "colorPermutations": {}
      },
      "attrs": [],
      "properties": {
        "order": 67,
        "id": 51,
        "name": "Time",
        "prevSize": 24,
        "code": 59668
      },
      "setIdx": 0,
      "setId": 1,
      "iconIdx": 10
    },
    {
      "icon": {
        "paths": [
          "M785.067 273.067v-273.067h-546.133v273.067h-204.8v136.533h68.267v614.4h819.2v-614.4h68.267v-136.533h-204.8zM648.533 273.067h-273.067v-136.533h273.067v136.533z"
        ],
        "attrs": [],
        "isMulticolor": false,
        "isMulticolor2": false,
        "grid": 24,
        "tags": [
          "Trash"
        ],
        "colorPermutations": {}
      },
      "attrs": [],
      "properties": {
        "order": 68,
        "id": 50,
        "name": "Trash",
        "prevSize": 24,
        "code": 59669
      },
      "setIdx": 0,
      "setId": 1,
      "iconIdx": 11
    },
    {
      "icon": {
        "paths": [
          "M535.425 485.229v-160.627c0-13.386-10.039-16.732-26.771-16.732s-26.771 0-26.771 16.732v160.627h-157.281c-13.386 0-16.732 10.039-16.732 26.771 0 13.386 0 26.771 16.732 26.771h160.627v160.627c0 13.386 10.039 16.732 26.771 16.732s26.771 0 26.771-16.732v-163.974h160.627c13.386 0 16.732-10.039 16.732-26.771 0-13.386 0-26.771-16.732-26.771h-163.974v3.346z",
          "M512 1020.654c-281.098 0-512-227.556-512-508.654s230.902-508.654 512-508.654c281.098 0 508.654 227.556 508.654 508.654s-227.556 508.654-508.654 508.654zM512 20.078c-274.405 0-495.268 220.863-495.268 491.922s220.863 491.922 495.268 491.922c271.059 0 491.922-220.863 491.922-491.922s-220.863-491.922-491.922-491.922z"
        ],
        "attrs": [],
        "width": 1021,
        "grid": 24,
        "tags": [
          "add opportunity inactive"
        ],
        "isMulticolor": false,
        "isMulticolor2": false,
        "colorPermutations": {}
      },
      "attrs": [],
      "properties": {
        "order": 69,
        "id": 49,
        "name": "add-opportunity-inactive",
        "prevSize": 24,
        "code": 59670
      },
      "setIdx": 0,
      "setId": 1,
      "iconIdx": 12
    },
    {
      "icon": {
        "paths": [
          "M1177.6 0h-1177.6l588.8 1024z"
        ],
        "attrs": [],
        "width": 1178,
        "isMulticolor": false,
        "isMulticolor2": false,
        "grid": 24,
        "tags": [
          "arrow menu down"
        ],
        "colorPermutations": {}
      },
      "attrs": [],
      "properties": {
        "order": 70,
        "id": 48,
        "name": "arrow-menu-down",
        "prevSize": 24,
        "code": 59671
      },
      "setIdx": 0,
      "setId": 1,
      "iconIdx": 13
    },
    {
      "icon": {
        "paths": [
          "M845.913 341.333l682.667 682.667 163.246-163.246-712.348-727.188-133.565-133.565-845.913 845.913 163.246 163.246 682.667-667.826z"
        ],
        "attrs": [],
        "width": 1707,
        "isMulticolor": false,
        "isMulticolor2": false,
        "grid": 24,
        "tags": [
          "colapse up"
        ],
        "colorPermutations": {}
      },
      "attrs": [],
      "properties": {
        "order": 71,
        "id": 47,
        "name": "colapse-up",
        "prevSize": 24,
        "code": 59672
      },
      "setIdx": 0,
      "setId": 1,
      "iconIdx": 14
    },
    {
      "icon": {
        "paths": [
          "M0 569.6h454.4v-569.6h-454.4v569.6z",
          "M0 1024h454.4v-339.2h-454.4v339.2z",
          "M569.6 1024h454.4v-569.6h-454.4v569.6z",
          "M569.6 0v339.2h454.4v-339.2h-454.4z"
        ],
        "attrs": [
          {},
          {},
          {},
          {}
        ],
        "isMulticolor": false,
        "isMulticolor2": false,
        "grid": 24,
        "tags": [
          "dashboard icon inactive"
        ],
        "colorPermutations": {
          "1271431641191204220122122523112411724012512234812550311255204120125525525513443581698088179891061": [
            {},
            {},
            {},
            {}
          ]
        }
      },
      "attrs": [
        {},
        {},
        {},
        {}
      ],
      "properties": {
        "order": 73,
        "id": 45,
        "name": "dashboard-icon-inactive",
        "prevSize": 24,
        "code": 59674
      },
      "setIdx": 0,
      "setId": 1,
      "iconIdx": 15
    },
    {
      "icon": {
        "paths": [
          "M516.531 0c-289.982 0-516.531 226.549-516.531 516.531 0 280.92 226.549 507.469 516.531 516.531 289.982 0 516.531-235.611 516.531-516.531 0-289.982-235.611-516.531-516.531-516.531zM299.044 743.080h-117.805v-344.354h117.805v344.354zM842.761 480.283c0 0 0 9.062 0 18.124l-90.619 208.425c-9.062 18.124-27.186 36.248-54.372 36.248h-271.858c-36.248 0-63.434-18.124-63.434-54.372v-289.982c0-18.124 9.062-36.248 18.124-45.31 0 0 199.363-190.301 199.363-190.301 9.062 9.062 18.124 18.124 27.186 27.186 9.062 18.124 9.062 36.248 9.062 45.31s0 9.062 0 18.124c0 18.124-9.062 27.186-9.062 45.31-9.062 27.186-9.062 45.31-18.124 72.496h190.301c36.248 0 63.434 18.124 63.434 54.372v54.372z"
        ],
        "attrs": [
          {}
        ],
        "grid": 24,
        "tags": [
          "deal status change icon"
        ],
        "isMulticolor": false,
        "isMulticolor2": false,
        "colorPermutations": {
          "1271431641191204220122122523112411724012512234812550311255204120125525525513443581698088179891061": [
            {}
          ]
        }
      },
      "attrs": [
        {}
      ],
      "properties": {
        "order": 75,
        "id": 43,
        "name": "deal-status-change-icon",
        "prevSize": 24,
        "code": 59676
      },
      "setIdx": 0,
      "setId": 1,
      "iconIdx": 16
    },
    {
      "icon": {
        "paths": [
          "M0 807.662v115.38h677.859c0 0-108.169-151.437-7.211-317.296 28.845-36.056-151.437-28.845-209.127-28.845-151.437 0-461.521 79.324-461.521 230.761zM461.521 461.521c129.803 0 230.761-100.958 230.761-230.761s-100.958-230.761-230.761-230.761-230.761 100.958-230.761 230.761 108.169 230.761 230.761 230.761zM959.099 497.577c-144.225 0-259.606 115.38-259.606 259.606s115.38 259.606 259.606 259.606c144.225 0 259.606-115.38 259.606-259.606s-108.169-259.606-259.606-259.606zM959.099 966.31c-115.38 0-201.915-93.746-201.915-201.915s93.746-201.915 201.915-201.915c115.38 0 201.915 93.746 201.915 201.915s-86.535 201.915-201.915 201.915zM1016.789 836.507c-7.211 7.211-21.634 14.423-36.056 21.634-7.211 0-7.211 7.211-7.211 7.211 0 7.211 0 14.423 0 14.423 0 7.211 0 7.211-7.211 7.211s-14.423 0-21.634 0c-7.211 0-7.211 0-7.211-7.211s0-7.211 0-14.423 0-7.211-7.211-14.423c-14.423 0-21.634-7.211-36.056-7.211-7.211-7.211-7.211-7.211-7.211-14.423s0-14.423 7.211-21.634c0-7.211 7.211-7.211 14.423-7.211 14.423 7.211 21.634 7.211 36.056 14.423 7.211 0 14.423 0 21.634 0 14.423-7.211 14.423-21.634 7.211-36.056-7.211 0-7.211-7.211-14.423-7.211-14.423-7.211-28.845-7.211-36.056-14.423-21.634-14.423-28.845-28.845-28.845-50.479 0-28.845 14.423-43.268 43.268-50.479 7.211-7.211 7.211 0 7.211-14.423 0 0 0-7.211 0-14.423s0-7.211 7.211-7.211c0 0 7.211 0 7.211 0 14.423 0 14.423 0 14.423 14.423s0 14.423 14.423 14.423c7.211 0 21.634 7.211 28.845 7.211s7.211 7.211 7.211 7.211-7.211 14.423-7.211 21.634c0 7.211-7.211 7.211-14.423 7.211-14.423-7.211-28.845-7.211-43.268-7.211-7.211 0-7.211 0-14.423 0-7.211 14.423-7.211 28.845 0 36.056s14.423 7.211 21.634 7.211c14.423 7.211 21.634 7.211 36.056 14.423 28.845 21.634 43.268 64.901 14.423 93.746z"
        ],
        "attrs": [
          {}
        ],
        "width": 1226,
        "grid": 24,
        "tags": [
          "deals icon hover"
        ],
        "isMulticolor": false,
        "isMulticolor2": false,
        "colorPermutations": {
          "1271431641191204220122122523112411724012512234812550311255204120125525525513443581698088179891061": [
            {}
          ]
        }
      },
      "attrs": [
        {}
      ],
      "properties": {
        "order": 76,
        "id": 42,
        "name": "deals-icon-hover",
        "prevSize": 24,
        "code": 59677
      },
      "setIdx": 0,
      "setId": 1,
      "iconIdx": 17
    },
    {
      "icon": {
        "paths": [
          "M845.913 682.667l-682.667-682.667-163.246 163.246 860.754 860.754 845.913-845.913-178.087-178.087-682.667 682.667z"
        ],
        "attrs": [],
        "width": 1707,
        "isMulticolor": false,
        "isMulticolor2": false,
        "grid": 24,
        "tags": [
          "expand down"
        ],
        "colorPermutations": {}
      },
      "attrs": [],
      "properties": {
        "order": 78,
        "id": 40,
        "name": "expand-down",
        "prevSize": 24,
        "code": 59679
      },
      "setIdx": 0,
      "setId": 1,
      "iconIdx": 18
    },
    {
      "icon": {
        "paths": [
          "M1861.818 175.838c0 93.091-72.404 165.495-165.495 165.495-10.343 0-31.030 0-41.374-10.343l-310.303 310.303c0 10.343 10.343 31.030 10.343 41.374 0 93.091-72.404 165.495-165.495 165.495s-165.495-72.404-165.495-165.495c0-10.343 0-31.030 10.343-41.374l-227.556-217.212c-10.343 0-31.030 10.343-41.374 10.343s-31.030 0-41.374-10.343l-393.051 382.707c0 10.343 10.343 31.030 10.343 41.374 0 93.091-72.404 165.495-165.495 165.495s-175.838-72.404-175.838-165.495c0-93.091 72.404-165.495 165.495-165.495 10.343 0 31.030 0 41.374 10.343l382.707-382.707c0-10.343-10.343-31.030-10.343-41.374 0-93.091 72.404-165.495 165.495-165.495s186.182 62.061 186.182 155.152c0 10.343 0 31.030-10.343 41.374l217.212 217.212c20.687 0 31.030 0 51.717 0 10.343 0 31.030 0 41.374 10.343l299.96-299.96c0-10.343-10.343-31.030-10.343-41.374 0-93.091 72.404-165.495 165.495-165.495s175.838 62.061 175.838 155.152z"
        ],
        "attrs": [
          {}
        ],
        "width": 1881,
        "grid": 24,
        "tags": [
          "expenses icon inactive"
        ],
        "isMulticolor": false,
        "isMulticolor2": false,
        "colorPermutations": {
          "1271431641191204220122122523112411724012512234812550311255204120125525525513443581698088179891061": [
            {}
          ]
        }
      },
      "attrs": [
        {}
      ],
      "properties": {
        "order": 57,
        "id": 39,
        "name": "expenses-icon-inactive",
        "prevSize": 24,
        "code": 59680
      },
      "setIdx": 0,
      "setId": 1,
      "iconIdx": 19
    },
    {
      "icon": {
        "paths": [
          "M551.385 850.708l-338.708 173.292 63.015-370.215-275.692-259.938 378.092-55.138 173.292-338.708 173.292 338.708 378.092 55.138-275.692 259.938 63.015 370.215z"
        ],
        "attrs": [],
        "width": 1103,
        "isMulticolor": false,
        "isMulticolor2": false,
        "grid": 24,
        "tags": [
          "Favorite Gray"
        ],
        "colorPermutations": {}
      },
      "attrs": [],
      "properties": {
        "order": 79,
        "id": 38,
        "name": "Favorite-Gray",
        "prevSize": 24,
        "code": 59681
      },
      "setIdx": 0,
      "setId": 1,
      "iconIdx": 20
    },
    {
      "icon": {
        "paths": [
          "M188.823 769.816c-36.312 0-65.362-29.050-65.362-65.362s29.050-65.362 65.362-65.362 65.362 29.050 65.362 65.362-29.050 65.362-65.362 65.362v0zM384.908 704.454c0-79.887-50.837-152.511-130.723-181.56v-522.894h-123.461v522.894c-79.887 29.050-130.723 101.674-130.723 181.56s50.837 152.511 130.723 181.56v137.986h130.723v-137.986c72.624-29.050 123.461-94.411 123.461-181.56v0zM573.73 384.908c-36.312 0-65.362-29.050-65.362-65.362s29.050-65.362 65.362-65.362c36.312 0 65.362 29.050 65.362 65.362s-29.050 65.362-65.362 65.362v0zM646.355 501.106c72.624-29.050 130.723-94.411 130.723-181.56s-58.099-152.511-130.723-181.56v-137.986h-130.723v137.986c-72.624 29.050-130.723 94.411-130.723 181.56s50.837 152.511 130.723 181.56v522.894h130.723v-522.894zM965.901 769.816c-36.312 0-65.362-29.050-65.362-65.362s29.050-65.362 65.362-65.362 65.362 29.050 65.362 65.362-29.050 65.362-65.362 65.362v0zM1161.986 704.454c0-79.887-50.837-152.511-130.723-181.56v-522.894h-130.723v522.894c-72.624 29.050-130.723 94.411-130.723 181.56s50.837 152.511 130.723 181.56v137.986h130.723v-137.986c72.624-29.050 130.723-94.411 130.723-181.56v0z"
        ],
        "attrs": [],
        "width": 1162,
        "isMulticolor": false,
        "isMulticolor2": false,
        "grid": 24,
        "tags": [
          "filter button active"
        ],
        "colorPermutations": {}
      },
      "attrs": [],
      "properties": {
        "order": 81,
        "id": 36,
        "name": "filter-button-active",
        "prevSize": 24,
        "code": 59683
      },
      "setIdx": 0,
      "setId": 1,
      "iconIdx": 21
    },
    {
      "icon": {
        "paths": [
          "M525.593 1024c-280.92 0-516.531-226.549-516.531-516.531s235.611-507.469 516.531-507.469 516.531 226.549 516.531 516.531-235.611 507.469-516.531 507.469zM598.088 498.407c-18.124-9.062-45.31-27.186-72.496-36.248-9.062 0-27.186-9.062-36.248-18.124-18.124-18.124-18.124-45.31 9.062-54.372 9.062 0 18.124 0 27.186-9.062 27.186 0 63.434 0 90.619 18.124 9.062 9.062 9.062 0 18.124-9.062 0-18.124 9.062-36.248 9.062-45.31s0-18.124-9.062-18.124c-18.124-9.062-36.248-18.124-54.372-18.124-27.186 0-27.186 0-27.186-27.186 0-36.248 0-36.248-36.248-36.248-9.062 0-9.062 0-18.124 0-18.124 0-18.124 0-18.124 18.124 0 9.062 0 18.124 0 18.124 0 18.124 0 18.124-18.124 27.186-54.372 18.124-81.558 54.372-90.619 117.805 0 54.372 27.186 81.558 63.434 108.743 27.186 9.062 54.372 18.124 81.558 27.186 9.062 9.062 27.186 18.124 36.248 18.124 27.186 18.124 18.124 54.372-9.062 72.496-18.124 9.062-36.248 9.062-54.372 9.062-27.186-9.062-54.372-9.062-81.558-27.186-9.062-9.062-18.124 0-18.124 9.062s-9.062 27.186-9.062 36.248c-9.062 18.124 0 27.186 18.124 27.186 18.124 9.062 45.31 18.124 72.496 18.124 18.124 0 18.124 0 18.124 27.186 0 9.062 0 18.124 0 27.186s9.062 18.124 18.124 18.124c9.062 0 27.186 0 36.248 0s18.124-9.062 18.124-18.124c0-9.062 0-27.186 0-36.248s9.062-18.124 18.124-18.124c18.124-0 36.248-18.124 54.372-36.248 54.372-63.434 36.248-154.053-36.248-190.301z"
        ],
        "attrs": [
          {}
        ],
        "width": 1042,
        "isMulticolor": false,
        "isMulticolor2": false,
        "grid": 24,
        "tags": [
          "funds received icon"
        ],
        "colorPermutations": {
          "1271431641191204220122122523112411724012512234812550311255204120125525525513443581698088179891061": [
            {}
          ]
        }
      },
      "attrs": [
        {}
      ],
      "properties": {
        "order": 83,
        "id": 34,
        "name": "funds-received-icon",
        "prevSize": 24,
        "code": 59685
      },
      "setIdx": 0,
      "setId": 1,
      "iconIdx": 22
    },
    {
      "icon": {
        "paths": [
          "M605.091 0v589.576l-170.667 434.424h-263.758l77.576-434.424h-248.242v-589.576h605.091zM1365.333 0v589.576l-170.667 434.424h-248.242l77.576-434.424h-248.242v-589.576h589.576z"
        ],
        "attrs": [
          {}
        ],
        "width": 1365,
        "isMulticolor": false,
        "isMulticolor2": false,
        "grid": 24,
        "tags": [
          "generic timeline record icon"
        ],
        "colorPermutations": {
          "1271431641191204220122122523112411724012512234812550311255204120125525525513443581698088179891061": [
            {}
          ]
        }
      },
      "attrs": [
        {}
      ],
      "properties": {
        "order": 84,
        "id": 33,
        "name": "generic-timeline-record-icon",
        "prevSize": 24,
        "code": 59686
      },
      "setIdx": 0,
      "setId": 1,
      "iconIdx": 23
    },
    {
      "icon": {
        "paths": [
          "M1024 1024h-365.714v-365.714h365.714v365.714zM365.714 1024h-365.714v-365.714h365.714v365.714zM365.714 365.714h-365.714v-365.714h365.714v365.714zM1024 365.714h-365.714v-365.714h365.714v365.714z"
        ],
        "attrs": [],
        "isMulticolor": false,
        "isMulticolor2": false,
        "grid": 24,
        "tags": [
          "Grid"
        ],
        "colorPermutations": {}
      },
      "attrs": [],
      "properties": {
        "order": 85,
        "id": 32,
        "name": "Grid",
        "prevSize": 24,
        "code": 59687
      },
      "setIdx": 0,
      "setId": 1,
      "iconIdx": 24
    },
    {
      "icon": {
        "paths": [
          "M936.302 160.914l-453.486-168.229c-7.314 0-7.314 0-14.629 0l-453.486 168.229c-7.314 0-14.629 7.314-14.629 14.629 0 468.114 263.314 760.686 468.114 855.771 0 0 7.314 0 7.314 0s7.314 0 7.314 0c204.8-95.086 468.114-402.286 468.114-855.771 0-7.314-7.314-14.629-14.629-14.629zM431.616 431.542c7.314 7.314 21.943 21.943 51.2 29.257 58.514 21.943 102.4 43.886 131.657 65.829 29.257 14.629 43.886 51.2 43.886 87.771s-14.629 65.829-43.886 87.771c-21.943 21.943-58.514 29.257-95.086 36.571v51.2c0 7.314-7.314 14.629-14.629 14.629h-58.514c-7.314 0-14.629-7.314-14.629-14.629v-51.2c-43.886 0-87.771-14.629-117.029-43.886-29.257-21.943-43.886-51.2-43.886-87.771 0-7.314 7.314-14.629 14.629-14.629h95.086c7.314 0 14.629 7.314 14.629 14.629 0 21.943 7.314 36.571 21.943 43.886 14.629 14.629 29.257 14.629 51.2 14.629 21.943-7.314 36.571-7.314 43.886-14.629s14.629-21.943 14.629-36.571c0-14.629-7.314-29.257-14.629-36.571-7.314-14.629-29.257-21.943-51.2-29.257-58.514-21.943-102.4-43.886-131.657-65.829-29.257-14.629-43.886-43.886-43.886-87.771 0-36.571 14.629-65.829 43.886-87.771s65.829-36.571 102.4-36.571v-58.514c0-7.314 7.314-14.629 14.629-14.629h58.514c7.314 0 14.629 7.314 14.629 14.629v58.514c36.571 7.314 73.143 21.943 95.086 43.886 29.257 21.943 43.886 51.2 43.886 87.771 0 7.314-7.314 14.629-14.629 14.629h-95.086c-7.314 0-14.629-7.314-14.629-14.629 0-14.629-7.314-29.257-14.629-36.571-14.629-14.629-29.257-14.629-51.2-14.629-14.629 0-29.257 0-36.571 7.314-7.314 14.629-14.629 21.943-14.629 36.571s7.314 29.257 14.629 36.571z"
        ],
        "attrs": [],
        "width": 951,
        "isMulticolor": false,
        "isMulticolor2": false,
        "grid": 24,
        "tags": [
          "investor verified"
        ],
        "colorPermutations": {}
      },
      "attrs": [],
      "properties": {
        "order": 86,
        "id": 31,
        "name": "investor-verified",
        "prevSize": 24,
        "code": 59688
      },
      "setIdx": 0,
      "setId": 1,
      "iconIdx": 25
    },
    {
      "icon": {
        "paths": [
          "M112.64 624.64l286.72-112.64-286.72-112.64-112.64-399.36 911.36 512-911.36 512 112.64-399.36z"
        ],
        "attrs": [
          {}
        ],
        "width": 911,
        "isMulticolor": false,
        "isMulticolor2": false,
        "grid": 24,
        "tags": [
          "invitation small"
        ],
        "colorPermutations": {
          "1271431641191204220122122523112411724012512234812550311255204120125525525513443581698088179891061": [
            {}
          ]
        }
      },
      "attrs": [
        {}
      ],
      "properties": {
        "order": 87,
        "id": 30,
        "name": "invitation-small",
        "prevSize": 24,
        "code": 59689
      },
      "setIdx": 0,
      "setId": 1,
      "iconIdx": 26
    },
    {
      "icon": {
        "paths": [
          "M716.8 563.2c25.6 0 51.2-25.6 51.2-51.2v-460.8c0-25.6-25.6-51.2-51.2-51.2h-665.6c-25.6 0-51.2 25.6-51.2 51.2v716.8l204.8-204.8h512z",
          "M972.8 204.8h-102.4v460.8h-665.6v102.4c0 25.6 25.6 51.2 51.2 51.2h563.2l204.8 204.8v-768c0-25.6-25.6-51.2-51.2-51.2z"
        ],
        "attrs": [
          {},
          {}
        ],
        "isMulticolor": false,
        "isMulticolor2": false,
        "grid": 24,
        "tags": [
          "messages icon inactive"
        ],
        "colorPermutations": {
          "1271431641191204220122122523112411724012512234812550311255204120125525525513443581698088179891061": [
            {},
            {}
          ]
        }
      },
      "attrs": [
        {},
        {}
      ],
      "properties": {
        "order": 101,
        "id": 28,
        "name": "messages-icon-inactive",
        "prevSize": 24,
        "code": 59691
      },
      "setIdx": 0,
      "setId": 1,
      "iconIdx": 27
    },
    {
      "icon": {
        "paths": [
          "M931.84 0h-839.68c-51.2 0-92.16 40.96-92.16 92.16v839.68c0 51.2 40.96 92.16 92.16 92.16h839.68c51.2 0 92.16-40.96 92.16-92.16v-839.68c0-51.2-40.96-92.16-92.16-92.16zM849.92 829.44h-675.84v-122.88h686.080v122.88zM849.92 573.44h-675.84v-122.88h686.080v122.88zM849.92 317.44h-675.84v-122.88h686.080v122.88z"
        ],
        "attrs": [
          {}
        ],
        "isMulticolor": false,
        "isMulticolor2": false,
        "grid": 24,
        "tags": [
          "note small"
        ],
        "colorPermutations": {
          "1271431641191204220122122523112411724012512234812550311255204120125525525513443581698088179891061": [
            {}
          ]
        }
      },
      "attrs": [
        {}
      ],
      "properties": {
        "order": 99,
        "id": 26,
        "name": "note-small",
        "prevSize": 24,
        "code": 59695
      },
      "setIdx": 0,
      "setId": 1,
      "iconIdx": 28
    },
    {
      "icon": {
        "paths": [
          "M512 1024c-281.6 0-512-230.4-512-512s230.4-512 512-512c281.6 0 512 230.4 512 512s-230.4 512-512 512zM512 256c-140.8 0-256 115.2-256 256s115.2 256 256 256c140.8 0 256-115.2 256-256s-115.2-256-256-256z"
        ],
        "attrs": [],
        "isMulticolor": false,
        "isMulticolor2": false,
        "grid": 24,
        "tags": [
          "notification icon"
        ],
        "colorPermutations": {}
      },
      "attrs": [],
      "properties": {
        "order": 98,
        "id": 25,
        "name": "notification-icon",
        "prevSize": 24,
        "code": 59698
      },
      "setIdx": 0,
      "setId": 1,
      "iconIdx": 29
    },
    {
      "icon": {
        "paths": [
          "M7371.034 1024h-7371.034v-1024h7371.034v1024zM75.034 948.966h7225.379v-873.931h-7225.379v873.931z",
          "M463.448 503.172c22.069 0 44.138 0 57.379-4.414 17.655-4.414 26.483-8.828 35.31-17.655s17.655-30.897 17.655-52.966c0-13.241 0-26.483-4.414-35.31s-8.828-17.655-17.655-22.069c-8.828-8.828-22.069-13.241-35.31-13.241s-35.31-4.414-52.966-4.414h-48.552v150.069h48.552zM295.724 750.345v-489.931h167.724c44.138 0 79.448 4.414 105.931 8.828s52.966 13.241 70.621 26.483c17.655 13.241 30.897 30.897 35.31 52.966 8.828 22.069 8.828 48.552 8.828 83.862s-4.414 61.793-8.828 83.862c-8.828 22.069-17.655 39.724-35.31 52.966s-39.724 22.069-70.621 26.483c-30.897 4.414-66.207 8.828-110.345 8.828h-48.552v145.655h-114.759z",
          "M926.897 494.345c22.069 0 39.724 0 52.966-4.414 13.241 0 26.483-4.414 35.31-13.241s17.655-26.483 17.655-52.966c0-13.241 0-26.483-4.414-35.31s-8.828-17.655-17.655-22.069c-8.828-4.414-22.069-8.828-35.31-8.828s-26.483-4.414-48.552-4.414h-48.552v136.828h48.552zM1041.655 745.931l-75.034-158.897c-4.414 0-13.241 0-17.655 0h-70.621v158.897h-114.759v-485.517h167.724c44.138 0 83.862 4.414 110.345 8.828s48.552 13.241 66.207 26.483c17.655 13.241 26.483 30.897 30.897 48.552 8.828 22.069 8.828 48.552 8.828 79.448 0 17.655 0 39.724-4.414 52.966 0 17.655-4.414 30.897-13.241 39.724-4.414 13.241-13.241 22.069-22.069 30.897s-22.069 17.655-35.31 22.069l92.69 176.552h-123.586z",
          "M1430.069 662.069c17.655 0 30.897-4.414 44.138-8.828s22.069-13.241 26.483-26.483c8.828-13.241 13.241-26.483 17.655-48.552 4.414-17.655 4.414-44.138 4.414-75.034s0-52.966-4.414-75.034c-4.414-22.069-8.828-35.31-17.655-48.552s-17.655-22.069-26.483-26.483c-13.241-4.414-26.483-8.828-44.138-8.828s-30.897 4.414-44.138 8.828c-13.241 4.414-22.069 13.241-26.483 26.483-8.828 13.241-13.241 26.483-17.655 48.552s-4.414 44.138-4.414 75.034c0 30.897 0 52.966 4.414 75.034s8.828 35.31 17.655 48.552c8.828 13.241 17.655 22.069 26.483 26.483 13.241 4.414 26.483 8.828 44.138 8.828zM1430.069 759.172c-35.31 0-66.207-4.414-92.69-13.241s-48.552-26.483-66.207-44.138c-17.655-22.069-30.897-48.552-39.724-79.448s-13.241-70.621-13.241-119.172 4.414-83.862 13.241-119.172c8.828-30.897 22.069-57.379 39.724-79.448s39.724-35.31 66.207-44.138c26.483-8.828 57.379-13.241 92.69-13.241s66.207 4.414 92.69 13.241c26.483 8.828 48.552 26.483 66.207 44.138s30.897 48.552 39.724 79.448c8.828 30.897 13.241 70.621 13.241 119.172s-4.414 83.862-13.241 119.172-22.069 57.379-39.724 79.448c-17.655 22.069-39.724 35.31-66.207 44.138s-57.379 13.241-92.69 13.241z",
          "M1867.034 648.828c30.897 0 57.379 0 75.034-4.414s35.31-13.241 44.138-26.483c8.828-8.828 13.241-26.483 17.655-44.138s4.414-44.138 4.414-70.621c0-35.31 0-61.793-4.414-79.448s-13.241-35.31-22.069-44.138c-8.828-8.828-26.483-17.655-44.138-17.655-17.655-4.414-39.724-4.414-70.621-4.414h-26.483v295.724h26.483zM1725.793 750.345v-489.931h145.655c48.552 0 88.276 4.414 119.172 13.241s57.379 22.069 75.034 39.724c22.069 17.655 35.31 44.138 44.138 75.034s13.241 70.621 13.241 119.172c0 39.724-4.414 75.034-8.828 105.931s-17.655 52.966-30.897 75.034c-17.655 22.069-44.138 39.724-75.034 48.552-35.31 8.828-79.448 13.241-132.414 13.241h-150.069z",
          "M2211.31 745.931h114.759v-485.517h-114.759z",
          "M2710.069 582.621h-75.034v-83.862h176.552v185.379c0 4.414-4.414 8.828-8.828 17.655-8.828 8.828-17.655 17.655-35.31 26.483s-35.31 17.655-57.379 22.069c-22.069 8.828-52.966 8.828-88.276 8.828s-66.207-4.414-92.69-13.241c-26.483-8.828-48.552-22.069-66.207-44.138s-30.897-48.552-39.724-79.448c-8.828-30.897-13.241-70.621-13.241-119.172s4.414-88.276 13.241-119.172c8.828-30.897 22.069-57.379 39.724-79.448s39.724-35.31 66.207-44.138c26.483-8.828 57.379-13.241 92.69-13.241 66.207 0 114.759 13.241 145.655 44.138s44.138 75.034 44.138 141.241h-110.345c0-30.897-8.828-52.966-22.069-66.207-8.828-13.241-30.897-22.069-57.379-22.069-17.655 0-30.897 4.414-39.724 8.828-13.241 4.414-22.069 13.241-26.483 26.483-8.828 13.241-13.241 30.897-17.655 48.552-4.414 22.069-4.414 44.138-4.414 75.034s0 57.379 4.414 75.034c4.414 22.069 8.828 35.31 17.655 48.552s17.655 22.069 30.897 26.483c13.241 4.414 26.483 8.828 44.138 8.828 26.483 0 48.552-4.414 61.793-8.828s17.655-13.241 17.655-17.655v-52.966z",
          "M2996.966 745.931v-163.31l-176.552-322.207h132.414l105.931 216.276 97.103-216.276h123.586l-167.724 322.207v163.31z",
          "M3482.483 335.448l-92.69 251.586h185.379l-92.69-251.586zM3641.379 754.759l-48.552-128h-216.276l-48.552 128h-44.138l180.966-472.276h44.138l180.966 472.276h-48.552z",
          "M4016.552 406.069c0-13.241 0-22.069-4.414-35.31s-8.828-22.069-22.069-30.897c-8.828-8.828-22.069-17.655-39.724-22.069s-35.31-8.828-57.379-8.828c-22.069 0-44.138 4.414-57.379 8.828s-26.483 8.828-35.31 17.655-17.655 17.655-22.069 30.897c-4.414 8.828-4.414 22.069-4.414 30.897 0 17.655 4.414 35.31 13.241 44.138 8.828 13.241 17.655 22.069 35.31 26.483 13.241 8.828 30.897 13.241 48.552 17.655s35.31 8.828 52.966 13.241c17.655 4.414 35.31 8.828 52.966 13.241s35.31 13.241 48.552 22.069 26.483 22.069 35.31 39.724c8.828 17.655 13.241 35.31 13.241 61.793 0 39.724-13.241 75.034-44.138 97.103s-75.034 35.31-132.414 35.31c-26.483 0-52.966-4.414-75.034-8.828s-39.724-13.241-57.379-26.483c-13.241-13.241-26.483-26.483-35.31-48.552-8.828-17.655-13.241-44.138-13.241-70.621h44.138c0 35.31 8.828 61.793 30.897 79.448s52.966 30.897 97.103 30.897c22.069 0 44.138 0 61.793-4.414s30.897-8.828 39.724-17.655 17.655-17.655 22.069-26.483 8.828-22.069 8.828-35.31c0-17.655-4.414-35.31-13.241-48.552s-17.655-22.069-35.31-30.897c-13.241-8.828-30.897-13.241-48.552-17.655s-35.31-8.828-52.966-13.241c-17.655-4.414-35.31-8.828-52.966-13.241s-35.31-13.241-48.552-22.069c-13.241-8.828-26.483-22.069-35.31-39.724-0-13.241-4.414-35.31-4.414-57.379 0-17.655 4.414-35.31 8.828-52.966s17.655-30.897 26.483-39.724c13.241-8.828 30.897-17.655 48.552-26.483 22.069-4.414 44.138-8.828 75.034-8.828s52.966 4.414 75.034 8.828c22.069 8.828 39.724 17.655 52.966 26.483 13.241 13.241 22.069 26.483 30.897 44.138 8.828 22.069 13.241 39.724 13.241 57.379h-44.138z",
          "M4431.448 406.069c0-13.241 0-22.069-4.414-35.31s-8.828-22.069-22.069-30.897c-8.828-8.828-22.069-17.655-39.724-22.069s-35.31-8.828-57.379-8.828c-22.069 0-44.138 4.414-57.379 8.828s-26.483 8.828-35.31 17.655c-8.828 8.828-13.241 17.655-17.655 26.483-4.414 13.241-4.414 22.069-4.414 35.31 0 17.655 4.414 35.31 13.241 44.138 8.828 13.241 17.655 22.069 35.31 26.483 13.241 8.828 30.897 13.241 48.552 17.655s35.31 8.828 52.966 13.241c17.655 4.414 35.31 8.828 52.966 13.241s35.31 13.241 48.552 22.069c13.241 8.828 26.483 22.069 35.31 39.724s13.241 35.31 13.241 61.793c0 39.724-13.241 75.034-44.138 97.103s-75.034 35.31-132.414 35.31c-26.483 0-52.966-4.414-75.034-8.828s-39.724-13.241-57.379-26.483c-13.241-13.241-26.483-26.483-35.31-48.552-8.828-17.655-13.241-44.138-13.241-70.621h44.138c0 35.31 8.828 61.793 30.897 79.448s52.966 30.897 97.103 30.897c22.069 0 44.138 0 61.793-4.414s30.897-8.828 39.724-17.655c8.828-8.828 17.655-17.655 22.069-26.483s8.828-22.069 8.828-35.31c0-17.655-4.414-35.31-13.241-48.552s-17.655-22.069-35.31-30.897c-13.241-8.828-30.897-13.241-48.552-17.655s-35.31-8.828-52.966-13.241c-17.655-4.414-35.31-8.828-52.966-13.241s-35.31-13.241-48.552-22.069c-13.241-8.828-26.483-22.069-35.31-39.724-4.414-13.241-8.828-35.31-8.828-57.379 0-17.655 4.414-35.31 8.828-52.966s17.655-30.897 26.483-39.724c13.241-8.828 30.897-17.655 48.552-26.483 22.069-4.414 44.138-8.828 75.034-8.828s52.966 4.414 75.034 8.828c22.069 8.828 39.724 17.655 52.966 26.483 13.241 13.241 22.069 26.483 30.897 44.138 4.414 17.655 8.828 35.31 8.828 57.379h-39.724z",
          "M4894.897 520.828c0-35.31-4.414-66.207-8.828-92.69s-13.241-48.552-26.483-66.207c-13.241-17.655-26.483-30.897-44.138-39.724s-39.724-13.241-70.621-13.241c-26.483 0-48.552 4.414-70.621 13.241-17.655 8.828-35.31 22.069-44.138 39.724-13.241 17.655-17.655 39.724-26.483 66.207-4.414 26.483-8.828 57.379-8.828 92.69s4.414 66.207 8.828 92.69c4.414 26.483 13.241 48.552 26.483 66.207s26.483 30.897 44.138 39.724c17.655 8.828 39.724 13.241 70.621 13.241 26.483 0 48.552-4.414 70.621-13.241 17.655-8.828 35.31-22.069 44.138-39.724 13.241-17.655 22.069-39.724 26.483-66.207 8.828-30.897 8.828-61.793 8.828-92.69zM4559.448 520.828c0-39.724 4.414-75.034 8.828-105.931s17.655-57.379 30.897-79.448c13.241-22.069 35.31-39.724 57.379-48.552 26.483-13.241 52.966-17.655 92.69-17.655 35.31 0 66.207 4.414 92.69 17.655s44.138 26.483 57.379 48.552c13.241 22.069 26.483 48.552 30.897 79.448s8.828 66.207 8.828 105.931c0 39.724-4.414 75.034-8.828 105.931s-17.655 57.379-30.897 79.448c-13.241 22.069-35.31 35.31-57.379 48.552-26.483 13.241-57.379 17.655-92.69 17.655s-66.207-4.414-92.69-17.655c-26.483-13.241-44.138-26.483-57.379-48.552s-26.483-48.552-30.897-79.448c-8.828-35.31-8.828-66.207-8.828-105.931z",
          "M5384.828 604.69c0 52.966-17.655 92.69-44.138 123.586-26.483 26.483-70.621 39.724-128 39.724-35.31 0-66.207-4.414-88.276-17.655s-44.138-26.483-57.379-48.552c-13.241-22.069-26.483-48.552-30.897-79.448s-8.828-66.207-8.828-105.931c0-39.724 4.414-75.034 8.828-105.931s17.655-57.379 30.897-79.448c13.241-22.069 35.31-39.724 57.379-48.552 22.069-13.241 52.966-17.655 88.276-17.655 57.379 0 101.517 13.241 128 44.138 26.483 26.483 44.138 70.621 44.138 123.586h-44.138c0-44.138-13.241-75.034-35.31-97.103s-52.966-30.897-92.69-30.897c-26.483 0-48.552 4.414-66.207 13.241s-35.31 22.069-44.138 39.724c-13.241 17.655-17.655 39.724-26.483 66.207-4.414 26.483-8.828 57.379-8.828 92.69s4.414 66.207 8.828 92.69c4.414 26.483 13.241 48.552 26.483 66.207s26.483 30.897 44.138 39.724c17.655 8.828 39.724 13.241 66.207 13.241 39.724 0 70.621-8.828 92.69-30.897 22.069-17.655 30.897-48.552 35.31-92.69h44.138z",
          "M5481.931 754.759h44.138v-472.276h-44.138z",
          "M5795.31 335.448l-92.69 251.586h185.379l-92.69-251.586zM5949.793 754.759l-48.552-128h-216.276l-48.552 128h-44.138l180.966-472.276h44.138l180.966 472.276h-48.552z",
          "M6121.931 754.759v-428.138h-150.069v-44.138h344.276v44.138h-150.069v428.138z",
          "M6382.345 754.759v-472.276h300.138v39.724h-251.586v167.724h216.276v39.724h-216.276v185.379h256v39.724z",
          "M7035.586 406.069c0-13.241 0-22.069-4.414-35.31s-8.828-22.069-22.069-30.897c-8.828-8.828-22.069-17.655-39.724-22.069s-35.31-8.828-57.379-8.828c-22.069 0-44.138 4.414-57.379 8.828s-26.483 8.828-35.31 17.655c-8.828 8.828-13.241 17.655-17.655 26.483s-4.414 22.069-4.414 30.897c0 17.655 4.414 35.31 13.241 44.138 8.828 13.241 17.655 22.069 35.31 26.483 13.241 8.828 30.897 13.241 48.552 17.655s35.31 8.828 52.966 13.241c17.655 4.414 35.31 8.828 52.966 13.241s35.31 13.241 48.552 22.069c13.241 8.828 26.483 22.069 35.31 39.724s13.241 35.31 13.241 61.793c0 39.724-13.241 75.034-44.138 97.103s-75.034 35.31-132.414 35.31c-26.483 0-52.966-4.414-75.034-8.828s-39.724-13.241-57.379-26.483c-13.241-13.241-26.483-26.483-35.31-48.552-8.828-17.655-13.241-44.138-13.241-70.621h44.138c0 35.31 8.828 61.793 30.897 79.448s52.966 30.897 97.103 30.897c22.069 0 44.138 0 61.793-4.414s30.897-8.828 39.724-17.655c8.828-8.828 17.655-17.655 22.069-26.483s8.828-22.069 8.828-35.31c0-17.655-4.414-35.31-13.241-48.552s-17.655-22.069-35.31-30.897c-13.241-8.828-30.897-13.241-48.552-17.655s-35.31-8.828-52.966-13.241c-17.655-4.414-35.31-8.828-52.966-13.241s-35.31-13.241-48.552-22.069c-13.241-8.828-26.483-22.069-35.31-39.724s-13.241-35.31-13.241-61.793c0-17.655 4.414-35.31 8.828-52.966s17.655-30.897 26.483-39.724c13.241-8.828 30.897-17.655 48.552-26.483 22.069-4.414 44.138-8.828 75.034-8.828s52.966 4.414 75.034 8.828c22.069 8.828 39.724 17.655 52.966 26.483 13.241 13.241 22.069 26.483 30.897 44.138 4.414 17.655 8.828 35.31 8.828 57.379h-35.31z"
        ],
        "attrs": [],
        "width": 7371,
        "isMulticolor": false,
        "isMulticolor2": false,
        "grid": 24,
        "tags": [
          "prodigy associates logo"
        ],
        "colorPermutations": {}
      },
      "attrs": [],
      "properties": {
        "order": 97,
        "id": 24,
        "name": "prodigy-associates-logo",
        "prevSize": 24,
        "code": 59699
      },
      "setIdx": 0,
      "setId": 1,
      "iconIdx": 30
    },
    {
      "icon": {
        "paths": [
          "M648.331 484.734v-321.136l-163.598-163.598-163.598 163.598v109.065h-321.136v751.337h969.467v-539.266h-321.136zM218.13 914.935h-109.065v-109.065h109.065v109.065zM218.13 702.864h-109.065v-109.065h109.065v109.065zM218.13 484.734h-109.065v-109.065h109.065v109.065zM539.266 914.935h-109.065v-109.065h109.065v109.065zM539.266 702.864h-109.065v-109.065h109.065v109.065zM539.266 484.734h-109.065v-109.065h109.065v109.065zM539.266 266.604h-109.065v-103.006h109.065v103.006zM860.402 914.935h-109.065v-109.065h109.065v109.065zM860.402 702.864h-109.065v-109.065h109.065v109.065z"
        ],
        "attrs": [
          {}
        ],
        "width": 969,
        "isMulticolor": false,
        "isMulticolor2": false,
        "grid": 24,
        "tags": [
          "projects icon inactive"
        ],
        "colorPermutations": {
          "1271431641191204220122122523112411724012512234812550311255204120125525525513443581698088179891061": [
            {}
          ]
        }
      },
      "attrs": [
        {}
      ],
      "properties": {
        "order": 96,
        "id": 23,
        "name": "projects-icon-inactive",
        "prevSize": 24,
        "code": 59700
      },
      "setIdx": 0,
      "setId": 1,
      "iconIdx": 31
    },
    {
      "icon": {
        "paths": [
          "M703.565 215.946l215.946-13.932-69.66-202.014-48.762 69.66c-167.184-125.388-285.605 48.762-285.605 48.762 104.49-48.762 146.286-41.796 236.844 20.898l-48.762 76.626zM905.578 585.143c83.592 0 153.252-69.66 153.252-153.252s-69.66-153.252-153.252-153.252-153.252 69.66-153.252 153.252 69.66 153.252 153.252 153.252v0zM438.857 522.449c104.49 0 188.082-83.592 188.082-188.082s-83.592-188.082-188.082-188.082-188.082 83.592-188.082 188.082 83.592 188.082 188.082 188.082v0zM905.578 710.531c-111.456 0-341.333 55.728-341.333 174.15v139.32h689.633v-139.32c0-118.422-229.878-174.15-348.299-174.15v0zM438.857 647.837c-146.286 0-438.857 69.66-438.857 215.946v153.252h438.857v-139.32c0-55.728 20.898-146.286 146.286-215.946-48.762-6.966-104.49-13.932-146.286-13.932v0z"
        ],
        "attrs": [
          {}
        ],
        "width": 1254,
        "isMulticolor": false,
        "isMulticolor2": false,
        "grid": 24,
        "tags": [
          "Referrals icon inactive"
        ],
        "colorPermutations": {
          "1271431641191204220122122523112411724012512234812550311255204120125525525513443581698088179891061": [
            {}
          ]
        }
      },
      "attrs": [
        {}
      ],
      "properties": {
        "order": 95,
        "id": 22,
        "name": "Referrals-icon-inactive",
        "prevSize": 24,
        "code": 59701
      },
      "setIdx": 0,
      "setId": 1,
      "iconIdx": 32
    },
    {
      "icon": {
        "paths": [
          "M1161.986 1016.738h-1161.986v-145.248h1161.986v145.248zM1161.986 580.993h-1161.986v-145.248h1161.986v145.248zM1161.986 145.248h-1161.986v-145.248h1161.986v145.248z"
        ],
        "attrs": [],
        "width": 1162,
        "isMulticolor": false,
        "isMulticolor2": false,
        "grid": 24,
        "tags": [
          "Rows"
        ],
        "colorPermutations": {}
      },
      "attrs": [],
      "properties": {
        "order": 94,
        "id": 21,
        "name": "Rows",
        "prevSize": 24,
        "code": 59702
      },
      "setIdx": 0,
      "setId": 1,
      "iconIdx": 33
    },
    {
      "icon": {
        "paths": [
          "M860.754 979.478c59.362-44.522 103.884-89.043 133.565-148.406 29.681 14.841 59.362 14.841 89.043 14.841 178.087 0 326.493-148.406 326.493-326.493s-148.406-326.493-326.493-326.493c-29.681 0-59.362 0-89.043 14.841-29.681-59.362-89.043-103.884-133.565-148.406 74.203-44.522 148.406-59.362 222.609-59.362 281.971 0 519.42 222.609 519.42 519.42s-237.449 504.58-519.42 504.58c-74.203 0-148.406-14.841-222.609-44.522zM504.58 1024c-281.971 0-504.58-222.609-504.58-504.58s222.609-519.42 504.58-519.42 519.42 222.609 519.42 519.42-237.449 504.58-519.42 504.58z"
        ],
        "attrs": [
          {}
        ],
        "width": 1603,
        "isMulticolor": false,
        "isMulticolor2": false,
        "grid": 24,
        "tags": [
          "status change icon"
        ],
        "colorPermutations": {
          "1271431641191204220122122523112411724012512234812550311255204120125525525513443581698088179891061": [
            {}
          ]
        }
      },
      "attrs": [
        {}
      ],
      "properties": {
        "order": 90,
        "id": 17,
        "name": "status-change-icon",
        "prevSize": 24,
        "code": 59706
      },
      "setIdx": 0,
      "setId": 1,
      "iconIdx": 34
    },
    {
      "icon": {
        "paths": [
          "M512 0c-281.6 0-512 230.4-512 512s230.4 512 512 512 512-230.4 512-512-230.4-512-512-512v0zM620.8 172.8l6.4-32c6.4-12.8 12.8-25.6 25.6-32s32-6.4 44.8 0c96 44.8 166.4 121.6 211.2 211.2 6.4 12.8 6.4 32 0 44.8s-12.8 25.6-32 25.6l-32 6.4c-19.2 6.4-44.8-6.4-51.2-25.6-32-64-83.2-115.2-147.2-147.2-19.2-6.4-32-25.6-25.6-51.2v0 0zM108.8 320c44.8-89.6 121.6-166.4 211.2-211.2 12.8-6.4 32-6.4 44.8 0s25.6 19.2 25.6 38.4l6.4 32c6.4 19.2-6.4 44.8-25.6 51.2-64 32-115.2 83.2-147.2 147.2-6.4 19.2-25.6 32-51.2 25.6l-32-12.8c-12.8 0-25.6-12.8-32-25.6s-6.4-32 0-44.8v0 0zM403.2 851.2l-6.4 32c-6.4 12.8-12.8 25.6-25.6 32s-32 6.4-44.8 0c-96-44.8-166.4-121.6-211.2-211.2-6.4-12.8-6.4-32 0-44.8 0-12.8 12.8-25.6 32-25.6l32-6.4c19.2-6.4 44.8 6.4 51.2 25.6 32 64 83.2 115.2 147.2 147.2 19.2 6.4 32 25.6 25.6 51.2v0 0zM268.8 512c0-134.4 108.8-243.2 243.2-243.2s243.2 108.8 243.2 243.2-108.8 243.2-243.2 243.2-243.2-108.8-243.2-243.2v0 0zM915.2 704c-44.8 96-121.6 166.4-211.2 211.2-12.8 6.4-32 6.4-44.8 0s-25.6-19.2-25.6-32l-6.4-32c-6.4-19.2 6.4-44.8 25.6-51.2 64-32 115.2-83.2 147.2-147.2 12.8-19.2 32-32 57.6-25.6l32 6.4c12.8 6.4 25.6 12.8 32 25.6 0 12.8 0 32-6.4 44.8v0 0z"
        ],
        "attrs": [
          {}
        ],
        "isMulticolor": false,
        "isMulticolor2": false,
        "grid": 24,
        "tags": [
          "support icon inactive"
        ],
        "colorPermutations": {
          "1271431641191204220122122523112411724012512234812550311255204120125525525513443581698088179891061": [
            {}
          ]
        }
      },
      "attrs": [
        {}
      ],
      "properties": {
        "order": 89,
        "id": 16,
        "name": "support-icon-inactive",
        "prevSize": 24,
        "code": 59707
      },
      "setIdx": 0,
      "setId": 1,
      "iconIdx": 35
    },
    {
      "icon": {
        "paths": [
          "M970.105 215.579h-215.579v-107.789c0-60.632-47.158-107.789-107.789-107.789h-215.579c-60.632 0-107.789 47.158-107.789 107.789v107.789h-215.579c-60.632 0-107.789 47.158-107.789 107.789v592.842c0 60.632 47.158 107.789 107.789 107.789h862.316c60.632 0 107.789-47.158 107.789-107.789v-592.842c0-60.632-47.158-107.789-107.789-107.789v0zM646.737 215.579h-215.579v-107.789h215.579v107.789h-0z"
        ],
        "attrs": [
          {}
        ],
        "width": 1078,
        "isMulticolor": false,
        "isMulticolor2": false,
        "grid": 24,
        "tags": [
          "toolkit icon inactive"
        ],
        "colorPermutations": {
          "1271431641191204220122122523112411724012512234812550311255204120125525525513443581698088179891061": [
            {}
          ]
        }
      },
      "attrs": [
        {}
      ],
      "properties": {
        "order": 88,
        "id": 15,
        "name": "toolkit-icon-inactive",
        "prevSize": 24,
        "code": 59708
      },
      "setIdx": 0,
      "setId": 1,
      "iconIdx": 36
    },
    {
      "icon": {
        "paths": [
          "M608.053 894.848v29.891c0 23.817-17.47 43.642-40.23 47.020l-7.37 27.161c-3.992 14.775-17.3 25.080-32.655 25.080h-73.123c-15.389 0-28.662-10.339-32.689-25.080l-7.131-27.161c-22.964-3.549-40.469-23.203-40.469-47.225v-29.925c0-16.003 12.864-28.867 28.867-28.867h175.933c16.037 0.239 28.867 13.103 28.867 29.106zM743.552 491.561c0 68.039-26.956 129.8-70.769 175.080-33.303 34.566-54.766 78.617-61.931 125.603-3.173 20.2-20.644 35.18-41.288 35.18h-156.552c-20.439 0-38.148-14.809-41.083-34.975-7.37-46.986-29.072-91.686-62.375-126.012-42.994-44.666-69.745-105.334-70.394-172.111-1.467-140.344 110.18-253.901 250.523-254.959 140.105-1.058 253.867 112.295 253.867 252.195zM527.355 481.12c-10.202-5.664-21.019-9.861-31.768-14.297-6.21-2.525-12.113-5.596-17.368-9.759-10.305-8.292-8.394-21.633 3.753-26.99 3.412-1.467 6.995-2.013 10.646-2.184 14.058-0.785 27.332 1.843 40.059 7.95 6.278 3.037 8.36 2.116 10.544-4.436 2.286-6.995 4.197-14.058 6.21-21.053 1.399-4.709-0.341-7.848-4.811-9.759-8.087-3.583-16.447-6.21-25.284-7.507-11.431-1.843-11.431-1.843-11.499-13.342-0.068-16.344-0.068-16.344-16.344-16.242-2.354 0-4.709-0.102-7.063 0-7.609 0.239-8.906 1.57-9.076 9.179-0.068 3.412 0 6.893 0 10.305-0.068 10.202-0.068 10.032-9.861 13.512-23.544 8.565-38.114 24.636-39.718 50.364-1.399 22.759 10.475 38.148 29.14 49.306 11.499 6.893 24.261 10.987 36.476 16.413 4.811 2.116 9.349 4.538 13.273 7.848 11.806 9.691 9.588 25.83-4.368 31.938-7.507 3.242-15.355 4.129-23.374 3.071-12.489-1.604-24.431-4.811-35.589-10.68-6.551-3.412-8.462-2.525-10.748 4.641-1.911 6.21-3.651 12.386-5.323 18.596-2.252 8.36-1.467 10.373 6.551 14.229 10.1 4.879 21.019 7.404 32.109 9.247 8.633 1.399 9.008 1.74 9.076 10.714 0 4.061 0.068 8.189 0.068 12.182 0.068 5.152 2.525 8.121 7.848 8.189 6.005 0.102 12.045 0.102 18.051 0 4.879-0.068 7.404-2.798 7.507-7.746 0-5.596 0.273-11.192 0.102-16.788-0.273-5.664 2.15-8.53 7.677-9.998 12.557-3.446 23.305-10.237 31.631-20.268 22.657-27.878 13.922-68.653-18.528-86.636zM491.356 156.552c15.594 0 28.424-12.659 28.424-28.424v-99.67c0-15.594-12.659-28.424-28.424-28.424-15.798 0-28.424 12.659-28.424 28.424v99.67c-0.034 15.764 12.83 28.424 28.424 28.424zM156.552 491.356c0-15.594-12.625-28.424-28.424-28.424h-99.67c-15.594 0-28.424 12.625-28.424 28.424 0 15.594 12.659 28.424 28.424 28.424h99.67c15.798 0.034 28.424-12.625 28.424-28.424zM954.289 462.933h-99.704c-15.594 0-28.424 12.625-28.424 28.424 0 15.594 12.625 28.424 28.424 28.424h99.704c15.56 0 28.424-12.659 28.424-28.424-0-15.594-12.625-28.424-28.424-28.424zM214.491 728.163l-70.564 70.598c-11.192 11.124-11.192 29.072 0 40.23 5.46 5.494 12.83 8.223 19.995 8.223s14.57-2.73 20.030-8.223l70.598-70.564c11.158-11.158 11.158-29.106 0-40.264-10.987-11.158-29.106-11.158-40.059 0zM748.192 262.944c7.166 0 14.57-2.73 20.030-8.223l70.564-70.564c11.192-11.192 11.192-29.106 0-40.264-11.158-11.158-29.072-11.158-40.264 0l-70.564 70.598c-11.124 11.158-11.124 29.072 0 40.23 5.698 5.494 12.864 8.223 20.234 8.223zM214.491 254.55c5.494 5.46 12.83 8.223 19.995 8.223s14.536-2.764 20.030-8.223c11.158-11.192 11.158-29.072 0-40.264l-70.598-70.598c-11.158-11.158-29.072-11.158-40.23 0-11.192 11.192-11.192 29.106 0 40.264l70.803 70.598zM768.222 728.163c-11.158-11.158-29.072-11.158-40.264 0-11.124 11.158-11.124 29.106 0 40.264l70.564 70.564c5.494 5.494 12.864 8.223 20.064 8.223 7.131 0 14.536-2.73 19.995-8.223 11.192-11.158 11.192-29.106 0-40.23l-70.359-70.598z"
        ],
        "width": 983,
        "attrs": [
          {}
        ],
        "isMulticolor": false,
        "isMulticolor2": false,
        "tags": [
          "money-bulb-icon"
        ],
        "grid": 24,
        "colorPermutations": {
          "1271431641191204220122122523112411724012512234812550311255204120125525525513443581698088179891061": [
            {}
          ]
        }
      },
      "attrs": [
        {}
      ],
      "properties": {
        "order": 103,
        "id": 0,
        "name": "money-bulb-icon",
        "prevSize": 24,
        "code": 59656
      },
      "setIdx": 0,
      "setId": 1,
      "iconIdx": 37
    },
    {
      "icon": {
        "paths": [
          "M1073.575 523.865c100.937 0 182.126-81.92 182.126-182.857 0-100.856-81.189-182.857-182.126-182.857-100.856 0-182.857 82.001-182.857 182.857 0 100.937 82.001 182.857 182.857 182.857zM525.003 450.723c121.417 0 218.697-98.011 218.697-219.429s-97.28-219.429-218.697-219.429-219.429 98.011-219.429 219.429 98.011 219.429 219.429 219.429zM1073.575 670.151c-133.851 0-402.286 67.291-402.286 201.143v164.571h804.571v-164.571c-0-133.851-268.434-201.143-402.286-201.143zM525.003 597.008c-170.423 0-512 85.577-512 256v182.857h512v-164.571c0-62.171 24.137-170.992 173.349-253.806-63.634-13.166-125.074-20.48-173.349-20.48z"
        ],
        "width": 1463,
        "attrs": [
          {}
        ],
        "isMulticolor": false,
        "isMulticolor2": false,
        "tags": [
          "people-icon"
        ],
        "grid": 24,
        "colorPermutations": {
          "1271431641191204220122122523112411724012512234812550311255204120125525525513443581698088179891061": [
            {}
          ]
        }
      },
      "attrs": [
        {}
      ],
      "properties": {
        "order": 104,
        "id": 1,
        "name": "people-icon",
        "prevSize": 24,
        "code": 59657
      },
      "setIdx": 0,
      "setId": 1,
      "iconIdx": 38
    },
    {
      "icon": {
        "paths": [
          "M1247.189 258.858c-12.527-0.516-31.659-1.159-48.35-1.159-14.029 0-51.524-21.67-182.613-101.685l-0.060-0.039c-92.903-56.706-247.5-151.068-275.808-153.5-38.539 13.284-326.401 264.773-344.377 300.752 1.906 24.341 44.052 79.167 61.479 79.167 12.992-1.737 82.674-43.831 133.559-74.57 92.539-55.904 131.865-78.667 148.295-78.667 17.211 0 50.205 33.193 207.68 208.938 75.341 84.081 168.747 188.328 188.937 199.75h111.258v-378.987zM906.724 474.157c123.326 137.533 167.887 184.689 192.788 203.752 13.261 18.672 34.039 55.49 34.039 102.826 0 20.823-19.831 61.365-56.192 61.365-23.339 0-48.085-16.618-48.307-16.771l-22.025-15.089-0.307 26.698c-0.034 2.307-1.348 56.357-63.147 56.357-38.454 0-52.946-9.745-53.907-10.394l-0.052-0.034-16.607-14.882-6.599 21.325c-0.695 2.253-17.696 55.006-76.076 55.006-47.084 0-66.321-29.175-67.050-30.319l-13.445-21.538-11.518 22.733c-0.604 1.195-15.287 29.124-61.224 29.124-49.646 0-84.883-32.836-84.992-32.93l-196.682-196.497c-14.893-19.016-63.044-77.047-95.258-77.047h-40.317v-380.14h40.317c14.519 0 41.102-16.292 107.82-59.396 47.375-30.609 108.279-69.958 146.787-86.255-41.208 36.151-79.648 71.503-109.047 100.315-57.557 56.442-63.859 71.143-63.859 89.216 0 32.263 24.74 68.312 35.386 82.32 33.062 43.43 61.867 52.541 80.208 52.541 22.755 0 52.815-16.664 161.516-82.333l0.094-0.057 0.229-0.138c33.782-20.427 87.68-53.016 114.050-66.149 8.963 8.198 25.25 24.154 54.047 54.95 34.359 36.803 77.784 85.112 119.331 131.441zM76.544 637.839h93.234v-381.157h-93.234v381.157zM1398.989 637.839h-93.235v-381.157h93.235v381.157z"
        ],
        "width": 1451,
        "attrs": [],
        "isMulticolor": false,
        "isMulticolor2": false,
        "colorPermutations": {
          "1271431641191204220122122523112411724012512234812550311255204120125525525513443581698088179891061": []
        },
        "tags": [
          "deal"
        ],
        "grid": 24
      },
      "attrs": [],
      "properties": {
        "order": 105,
        "id": 2,
        "name": "deal",
        "prevSize": 24,
        "code": 59652
      },
      "setIdx": 0,
      "setId": 1,
      "iconIdx": 39
    },
    {
      "icon": {
        "paths": [
          "M631.806 299.959c-1.259-10.831-1.907-21.847-1.907-33.014 0-18.467 1.769-36.523 5.148-54.006-46.348-17.696-96.638-27.39-149.179-27.39-231.119 0-418.694 187.574-418.694 418.692s187.575 418.694 418.694 418.694c231.117 0 418.692-187.575 418.692-418.694 0-18.56-1.208-36.84-3.557-54.764-29.867-1.184-58.539-7.008-85.32-16.773 4.983 23.060 7.605 46.993 7.605 71.537 0 186.259-151.165 337.423-337.423 337.423s-337.425-151.164-337.425-337.423c0-186.258 151.167-337.425 337.425-337.425 52.264 0 101.766 11.904 145.94 33.143zM522.89 764.148v50.151h-70.106v-50.676c-44.9-9.452-82.973-38.335-85.861-89.274h51.464c2.626 27.57 21.531 49.101 69.581 49.101 51.464 0 63.017-25.732 63.017-41.748 0-21.793-11.553-42.274-70.106-56.191-65.118-15.754-109.755-42.536-109.755-96.364 0-45.162 36.497-74.57 81.66-84.285v-50.676h70.106v51.202c48.839 11.816 73.258 48.838 74.833 89.012h-51.464c-1.313-29.146-16.805-49.101-58.291-49.101-39.386 0-63.018 17.854-63.018 43.062 0 22.056 17.067 36.497 70.107 50.151s109.755 36.497 109.755 102.666c-0.263 48.051-36.235 74.308-81.923 82.973z",
          "M680.141 266.963c0 128.371 103.953 232.557 232.324 232.557 128.604 0 232.789-104.185 232.789-232.557s-104.185-232.557-232.789-232.557c-128.371 0-232.324 104.185-232.324 232.557zM726.651 266.962c0-102.79 83.255-186.045 186.045-186.045s186.045 83.255 186.045 186.045c0 102.79-83.255 186.045-186.045 186.045s-186.045-83.255-186.045-186.045zM976.839 379.561l-97.462-73.077 16.901-152.117h30.731l14.105 126.857 57.451 76.611-21.727 21.727z"
        ],
        "width": 1161,
        "attrs": [],
        "isMulticolor": false,
        "isMulticolor2": false,
        "colorPermutations": {
          "1271431641191204220122122523112411724012512234812550311255204120125525525513443581698088179891061": []
        },
        "tags": [
          "pendingDollar"
        ],
        "grid": 24
      },
      "attrs": [],
      "properties": {
        "order": 106,
        "id": 3,
        "name": "pendingDollar",
        "prevSize": 24,
        "code": 59653
      },
      "setIdx": 0,
      "setId": 1,
      "iconIdx": 40
    },
    {
      "icon": {
        "paths": [
          "M-0.003 512c0 265.091 214.878 480.036 479.97 480.036s480.036-214.946 480.036-480.036c0-265.091-214.946-480.036-480.036-480.036s-479.97 215.011-479.97 480.036zM854.573 512c0 206.907-167.7 374.606-374.606 374.606-206.84 0-374.54-167.7-374.54-374.606s167.7-374.606 374.54-374.606c206.907 0.066 374.606 167.765 374.606 374.606zM549.55 489.004c-19.702-11.004-40.59-19.043-61.347-27.61-11.992-4.876-23.392-10.806-33.54-18.912-19.9-16.012-16.21-41.776 7.248-52.056 6.589-2.833 13.509-3.888 20.559-4.217 27.149-1.515 52.781 3.558 77.359 15.287 12.125 5.93 16.21 4.085 20.427-8.567 4.349-13.509 8.039-27.149 11.992-40.59 2.702-9.093-0.725-15.156-9.291-18.912-15.683-6.92-31.827-11.992-48.828-14.497-22.141-3.558-22.141-3.558-22.272-25.83-0.132-31.498-0.132-31.498-31.498-31.365-4.546 0-9.093-0.132-13.64 0-14.695 0.527-17.198 3.031-17.528 17.726-0.132 6.589 0 13.311 0 19.9-0.132 19.702-0.132 19.373-19.043 26.094-45.467 16.473-73.67 47.51-76.701 97.259-2.702 43.951 20.229 73.67 56.273 95.215 22.206 13.311 46.85 21.218 70.441 31.629 9.291 4.085 18.055 8.763 25.632 15.156 22.733 18.714 18.516 49.947-8.434 61.743-14.497 6.26-29.653 7.907-45.203 5.865-24.117-2.966-47.18-9.291-68.728-20.559-12.652-6.589-16.342-4.876-20.691 8.961-3.756 11.992-7.051 23.919-10.28 35.912-4.349 16.144-2.833 20.098 12.652 27.412 19.571 9.555 40.59 14.365 62.006 17.857 16.671 2.702 17.33 3.36 17.528 20.691 0 7.973 0.198 15.815 0.198 23.59 0.132 9.95 4.876 15.617 15.156 15.815 11.598 0.198 23.26 0.198 34.858 0 9.489-0.198 14.299-5.338 14.497-15.024 0-10.806 0.462-21.547 0.132-32.288-0.527-11.004 4.217-16.605 14.826-19.439 24.249-6.589 44.94-19.702 61.018-39.141 43.819-53.703 26.95-132.38-35.781-167.107z"
        ],
        "width": 960,
        "attrs": [
          {}
        ],
        "isMulticolor": false,
        "isMulticolor2": false,
        "tags": [
          "roundedDollar"
        ],
        "grid": 24,
        "colorPermutations": {
          "1271431641191204220122122523112411724012512234812550311255204120125525525513443581698088179891061": [
            {}
          ]
        }
      },
      "attrs": [
        {}
      ],
      "properties": {
        "order": 107,
        "id": 4,
        "name": "roundedDollar",
        "prevSize": 24,
        "code": 59654
      },
      "setIdx": 0,
      "setId": 1,
      "iconIdx": 41
    },
    {
      "icon": {
        "paths": [
          "M46.178 513.622c0 275.084 222.756 498.338 497.837 498.338 275.583 0 498.836-223.254 498.836-498.338 0-275.081-223.254-498.335-498.836-498.335-275.082 0-497.837 223.255-497.837 498.335zM145.843 513.623c0-220.265 178.404-398.669 398.669-398.669s398.668 178.404 398.668 398.669c0 220.264-178.404 398.666-398.668 398.666s-398.669-178.402-398.669-398.666zM681.958 754.9l-208.847-156.593 36.218-325.965h65.851l30.226 271.835 123.109 164.168-46.557 46.555z"
        ],
        "width": 1097,
        "attrs": [],
        "isMulticolor": false,
        "isMulticolor2": false,
        "colorPermutations": {
          "1271431641191204220122122523112411724012512234812550311255204120125525525513443581698088179891061": []
        },
        "tags": [
          "roundedTime"
        ],
        "grid": 24
      },
      "attrs": [],
      "properties": {
        "order": 108,
        "id": 5,
        "name": "roundedTime",
        "prevSize": 24,
        "code": 59655
      },
      "setIdx": 0,
      "setId": 1,
      "iconIdx": 42
    },
    {
      "icon": {
        "paths": [
          "M274.78 613.638c0-23.981 3.198-44.366 9.592-61.152 6.396-16.788 17.187-32.374 32.374-46.763 22.383-21.584 42.967-40.369 61.753-56.357s34.973-30.976 48.561-44.965c13.59-13.989 24.181-27.178 31.776-39.569 7.594-12.39 11.39-25.381 11.39-38.969 0-26.38-8.193-46.964-24.58-61.752s-36.971-22.183-61.752-22.183c-37.571 0-66.147 10.392-85.734 31.175-19.585 20.784-30.575 45.964-32.973 75.542l-184.656-11.991c8.793-84.735 39.968-149.283 93.527-193.649s122.305-66.548 206.239-66.548c36.772 0 71.344 4.996 103.719 14.988s60.951 24.98 85.732 44.965 44.366 44.765 58.754 74.342c14.389 29.577 21.583 63.55 21.583 101.92 0 23.182-2.398 44.167-7.194 62.951-4.795 18.786-12.99 37.372-24.58 55.757-11.592 18.385-26.779 36.971-45.565 55.757s-42.566 39.368-71.344 61.752c-18.385 14.389-30.776 28.378-37.171 41.966-6.396 13.59-9.592 27.18-9.592 40.768v34.774h-179.86v-52.759zM254.398 843.858c0-15.187 2.797-29.576 8.392-43.166 5.597-13.588 13.39-25.379 23.382-35.372s21.783-17.787 35.372-23.382c13.59-5.595 27.979-8.392 43.167-8.392s29.576 2.797 43.166 8.392c13.588 5.595 25.379 13.39 35.372 23.382s17.787 21.783 23.382 35.372c5.595 13.59 8.392 27.979 8.392 43.166 0 15.189-2.797 29.578-8.392 43.167-5.595 13.588-13.39 25.379-23.382 35.372s-21.783 17.785-35.372 23.382c-13.59 5.595-27.979 8.392-43.166 8.392-15.189 0-29.578-2.797-43.167-8.392-13.588-5.597-25.379-13.39-35.372-23.382s-17.785-21.783-23.382-35.372c-5.595-13.59-8.392-27.979-8.392-43.167z"
        ],
        "width": 731,
        "attrs": [],
        "isMulticolor": false,
        "isMulticolor2": false,
        "colorPermutations": {
          "1271431641191204220122122523112411724012512234812550311255204120125525525513443581698088179891061": []
        },
        "tags": [
          "question-mark"
        ],
        "grid": 24
      },
      "attrs": [],
      "properties": {
        "order": 109,
        "id": 6,
        "name": "question-mark",
        "prevSize": 24,
        "code": 59651
      },
      "setIdx": 0,
      "setId": 1,
      "iconIdx": 43
    },
    {
      "icon": {
        "paths": [
          "M31.027 982.117h193.453v-567.823h-193.453v567.823zM1095.475 461.662c0-51.98-43.723-94.439-96.879-94.439h-304.724l48.439-217.622v-14.31c0-18.983-9.676-37.906-19.412-51.981l-53.337-47.368-319.178 312.297c-19.351 14.133-29.026 37.906-29.026 66.054v473.089c0 52.217 43.48 94.735 96.575 94.735h435.649c38.46 0 72.506-23.537 86.9-56.83l145.254-335.892c4.782-9.462 4.782-23.536 4.782-32.997v-94.736h4.956c0 0 0 4.85 0 0z"
        ],
        "width": 1126,
        "attrs": [],
        "isMulticolor": false,
        "isMulticolor2": false,
        "colorPermutations": {
          "1271431641191204220122122523112411724012512234812550311255204120125525525513443581698088179891061": []
        },
        "tags": [
          "commissionsPayable"
        ],
        "grid": 24
      },
      "attrs": [],
      "properties": {
        "order": 110,
        "id": 7,
        "name": "commissionsPayable",
        "prevSize": 24,
        "code": 59649
      },
      "setIdx": 0,
      "setId": 1,
      "iconIdx": 44
    },
    {
      "icon": {
        "paths": [
          "M402.903 313.474c0 154.046 124.744 279.068 278.789 279.068 154.325 0 279.347-125.022 279.347-279.068s-125.022-279.068-279.347-279.068c-154.045 0-278.789 125.022-278.789 279.068zM458.717 313.475c0-123.348 99.906-223.254 223.254-223.254s223.255 99.906 223.255 223.254c0 123.348-99.907 223.255-223.255 223.255s-223.254-99.906-223.254-223.255zM758.941 448.591l-116.954-87.693 20.282-182.54h36.877l16.926 152.227 68.941 91.934-26.072 26.072z",
          "M196.326 370.961c-82.823 0-150.041 67.218-150.041 150.041s67.218 150.041 150.041 150.041c82.822 0 150.041-67.218 150.041-150.041s-67.218-150.041-150.041-150.041zM211.135 584.964v20.061h-28.043v-20.27c-17.96-3.781-33.189-15.335-34.344-35.71h20.586c1.051 11.028 8.613 19.64 27.833 19.64 20.585 0 25.207-10.293 25.207-16.699 0-8.717-4.622-16.91-28.043-22.476-26.047-6.302-43.902-17.015-43.902-38.545 0-18.065 14.599-29.828 32.664-33.714v-20.271h28.043v20.481c19.535 4.726 29.303 19.535 29.933 35.604h-20.586c-0.525-11.659-6.722-19.64-23.316-19.64-15.755 0-25.207 7.142-25.207 17.224 0 8.823 6.827 14.6 28.043 20.061s43.902 14.599 43.902 41.066c-0.105 19.22-14.494 29.723-32.769 33.189z",
          "M496.406 671.061c-82.823 0-150.041 67.218-150.041 150.041s67.218 150.041 150.041 150.041c82.822 0 150.041-67.218 150.041-150.041s-67.218-150.041-150.041-150.041zM511.215 885.064v20.061h-28.043v-20.27c-17.96-3.781-33.189-15.335-34.344-35.71h20.586c1.051 11.028 8.613 19.64 27.833 19.64 20.585 0 25.207-10.293 25.207-16.699 0-8.717-4.622-16.91-28.043-22.476-26.047-6.302-43.902-17.015-43.902-38.545 0-18.065 14.599-29.828 32.664-33.714v-20.271h28.043v20.481c19.535 4.726 29.303 19.535 29.933 35.604h-20.586c-0.525-11.659-6.722-19.64-23.316-19.64-15.755 0-25.207 7.142-25.207 17.224 0 8.823 6.827 14.6 28.043 20.061s43.902 14.599 43.902 41.066c-0.105 19.22-14.494 29.723-32.769 33.189z"
        ],
        "attrs": [],
        "isMulticolor": false,
        "isMulticolor2": false,
        "colorPermutations": {
          "1271431641191204220122122523112411724012512234812550311255204120125525525513443581698088179891061": []
        },
        "tags": [
          "commissionsPending"
        ],
        "grid": 24
      },
      "attrs": [],
      "properties": {
        "order": 111,
        "id": 8,
        "name": "commissionsPending",
        "prevSize": 24,
        "code": 59650
      },
      "setIdx": 0,
      "setId": 1,
      "iconIdx": 45
    },
    {
      "icon": {
        "paths": [
          "M480.779 220.432c-69.019 0-125.034 56.015-125.034 125.034s56.015 125.034 125.034 125.034c69.018 0 125.034-56.016 125.034-125.034s-56.016-125.034-125.034-125.034zM493.119 398.767v16.717h-23.369v-16.892c-14.966-3.151-27.658-12.779-28.62-29.758h17.155c0.875 9.19 7.177 16.367 23.194 16.367 17.155 0 21.006-8.578 21.006-13.916 0-7.265-3.852-14.092-23.369-18.73-21.706-5.252-36.585-14.179-36.585-32.122 0-15.054 12.166-24.857 27.22-28.095v-16.892h23.369v17.067c16.28 3.938 24.419 16.279 24.945 29.67h-17.155c-0.438-9.715-5.602-16.367-19.431-16.367-13.128 0-21.006 5.951-21.006 14.354 0 7.352 5.689 12.166 23.369 16.716s36.585 12.166 36.585 34.222c-0.087 16.017-12.078 24.769-27.307 27.658z",
          "M730.847 406.562c-69.019 0-125.034 56.015-125.034 125.034s56.015 125.034 125.034 125.034c69.018 0 125.034-56.016 125.034-125.034s-56.016-125.034-125.034-125.034zM743.187 584.898v16.717h-23.369v-16.892c-14.966-3.151-27.658-12.779-28.62-29.758h17.155c0.875 9.19 7.177 16.367 23.194 16.367 17.155 0 21.006-8.578 21.006-13.916 0-7.265-3.852-14.092-23.369-18.73-21.706-5.252-36.585-14.179-36.585-32.122 0-15.054 12.166-24.857 27.22-28.095v-16.892h23.369v17.067c16.28 3.938 24.419 16.279 24.945 29.67h-17.155c-0.438-9.715-5.602-16.367-19.431-16.367-13.128 0-21.006 5.951-21.006 14.354 0 7.352 5.689 12.166 23.369 16.716s36.585 12.166 36.585 34.222c-0.087 16.017-12.078 24.769-27.307 27.658z",
          "M805.476 95.435c-69.019 0-125.034 56.015-125.034 125.034s56.015 125.034 125.034 125.034c69.018 0 125.034-56.016 125.034-125.034s-56.016-125.034-125.034-125.034zM817.816 273.771v16.717h-23.369v-16.892c-14.966-3.151-27.658-12.779-28.62-29.758h17.155c0.875 9.19 7.177 16.367 23.194 16.367 17.155 0 21.006-8.578 21.006-13.916 0-7.265-3.852-14.092-23.369-18.73-21.706-5.252-36.585-14.179-36.585-32.122 0-15.054 12.166-24.857 27.22-28.095v-16.892h23.369v17.067c16.28 3.938 24.419 16.279 24.945 29.67h-17.155c-0.438-9.715-5.602-16.367-19.431-16.367-13.128 0-21.006 5.951-21.006 14.354 0 7.352 5.689 12.166 23.369 16.716s36.585 12.166 36.585 34.222c-0.087 16.017-12.078 24.769-27.307 27.658z",
          "M671.652 810.708l209.070-57.46 18.644 71.119-311.975 171.945-236.64-66.429-122.131 13.7v-274.552l211.337-32.785 231.319 57.925v64.529l-0.375 0.104-165.463-40.352-11.905 48.815 178.12 43.441zM178.372 673.129v340.842h-123.909v-340.842h123.909z"
        ],
        "width": 956,
        "attrs": [],
        "isMulticolor": false,
        "isMulticolor2": false,
        "colorPermutations": {
          "1271431641191204220122122523112411724012512234812550311255204120125525525513443581698088179891061": []
        },
        "tags": [
          "commissionsTotal"
        ],
        "grid": 24
      },
      "attrs": [],
      "properties": {
        "order": 112,
        "id": 9,
        "name": "commissionsTotal",
        "prevSize": 24,
        "code": 59648
      },
      "setIdx": 0,
      "setId": 1,
      "iconIdx": 46
    },
    {
      "icon": {
        "paths": [
          "M229.651 718.55c-28.166 0-51.114-22.903-51.114-51.116 0-28.216 22.95-51.114 51.114-51.114s51.114 22.898 51.114 51.114c0 28.213-22.95 51.116-51.114 51.116zM382.995 667.43c0-66.551-42.886-122.778-102.23-143.939v-418.323h-102.23v418.323c-59.344 21.162-102.23 77.388-102.23 143.939 0 66.554 42.886 122.78 102.23 143.939v111.635h102.23v-111.635c59.344-21.158 102.23-77.385 102.23-143.939zM536.337 411.861c-28.165 0-51.114-22.899-51.114-51.114s22.951-51.114 51.114-51.114c28.165 0 51.114 22.898 51.114 51.114s-22.951 51.114-51.114 51.114zM590.439 504.681c59.345-21.162 102.23-77.388 102.23-143.939s-42.885-122.778-102.23-143.939v-111.635h-102.23v111.635c-59.344 21.162-102.232 77.388-102.232 143.939s42.888 122.778 102.232 143.939v418.323h102.23v-418.323zM849.002 718.55c-28.165 0-51.114-22.903-51.114-51.116 0-28.216 22.951-51.114 51.114-51.114s51.114 22.898 51.114 51.114c0 28.213-22.951 51.116-51.114 51.116zM1002.345 667.43c0-66.551-42.886-122.778-102.23-143.939v-418.323h-102.23v418.323c-59.344 21.162-102.23 77.388-102.23 143.939 0 66.554 42.886 122.78 102.23 143.939v111.635h102.23v-111.635c59.344-21.158 102.23-77.385 102.23-143.939z"
        ],
        "width": 1088,
        "attrs": [],
        "isMulticolor": false,
        "isMulticolor2": false,
        "colorPermutations": {
          "1271431641191204220122122523112411724012512234812550311255204120125525525513443581698088179891061": []
        },
        "tags": [
          "filter_settings"
        ],
        "grid": 24
      },
      "attrs": [],
      "properties": {
        "order": 113,
        "id": 10,
        "name": "filter_settings",
        "prevSize": 24,
        "code": 59696
      },
      "setIdx": 0,
      "setId": 1,
      "iconIdx": 47
    },
    {
      "icon": {
        "paths": [
          "M392.35 378.487h-310.857v-310.857h310.857v310.857zM81.493 938.029h310.857v-310.857h-310.857v310.857zM641.037 938.029h310.857v-310.857h-310.857v310.857zM641.037 378.487h310.857v-310.857h-310.857v310.857z"
        ],
        "attrs": [],
        "isMulticolor": false,
        "isMulticolor2": false,
        "colorPermutations": {
          "1271431641191204220122122523112411724012512234812550311255204120125525525513443581698088179891061": []
        },
        "tags": [
          "grid_view"
        ],
        "grid": 24
      },
      "attrs": [],
      "properties": {
        "order": 114,
        "id": 11,
        "name": "grid_view",
        "prevSize": 24,
        "code": 59697
      },
      "setIdx": 0,
      "setId": 1,
      "iconIdx": 48
    },
    {
      "icon": {
        "paths": [
          "M181.159 167.782c-163.962 163.892-163.962 429.63 0 593.592 134.513 134.445 337.576 158.365 496.639 72.12l245.248 175.080 98.906-98.834-175.152-245.314c86.317-159.067 62.392-362.13-72.12-496.644-163.891-163.892-429.63-163.892-593.521 0zM675.774 662.395c-109.123 109.050-286.656 109.050-395.707 0-109.122-109.122-109.122-286.583 0-395.704 109.051-109.122 286.583-109.122 395.707 0 109.050 109.121 109.050 286.583 0 395.704z"
        ],
        "attrs": [],
        "isMulticolor": false,
        "isMulticolor2": false,
        "colorPermutations": {
          "1271431641191204220122122523112411724012512234812550311255204120125525525513443581698088179891061": []
        },
        "tags": [
          "search_alt"
        ],
        "grid": 24
      },
      "attrs": [],
      "properties": {
        "order": 115,
        "id": 12,
        "name": "search_alt",
        "prevSize": 24,
        "code": 59693
      },
      "setIdx": 0,
      "setId": 1,
      "iconIdx": 49
    },
    {
      "icon": {
        "paths": [
          "M40.96 175.839l963.765 0v-137.68h-963.765v137.68zM1004.725 588.882h-688.405v-137.68h688.405v137.68zM1004.725 1001.924h-963.765v-137.68h963.765v137.68z"
        ],
        "attrs": [],
        "isMulticolor": false,
        "isMulticolor2": false,
        "colorPermutations": {
          "1271431641191204220122122523112411724012512234812550311255204120125525525513443581698088179891061": []
        },
        "tags": [
          "sideNavCollapse"
        ],
        "grid": 24
      },
      "attrs": [],
      "properties": {
        "order": 116,
        "id": 13,
        "name": "sideNavCollapse",
        "prevSize": 24,
        "code": 59664
      },
      "setIdx": 0,
      "setId": 1,
      "iconIdx": 50
    },
    {
      "icon": {
        "paths": [
          "M40.779 38.159h963.765v137.68h-963.765v-137.68zM40.779 451.201h688.405v137.68h-688.405v-137.68zM1004.544 864.244h-963.765v137.68h963.765v-137.68z"
        ],
        "attrs": [],
        "isMulticolor": false,
        "isMulticolor2": false,
        "colorPermutations": {
          "1271431641191204220122122523112411724012512234812550311255204120125525525513443581698088179891061": []
        },
        "tags": [
          "sideNavExpand"
        ],
        "grid": 24
      },
      "attrs": [],
      "properties": {
        "order": 117,
        "id": 14,
        "name": "sideNavExpand",
        "prevSize": 24,
        "code": 59692
      },
      "setIdx": 0,
      "setId": 1,
      "iconIdx": 51
    }
  ],
  "height": 1024,
  "metadata": {
    "name": "pna"
  },
  "preferences": {
    "showGlyphs": true,
    "showQuickUse": true,
    "showQuickUse2": true,
    "showSVGs": true,
    "fontPref": {
      "prefix": "icon-",
      "metadata": {
        "fontFamily": "pna",
        "majorVersion": 1,
        "minorVersion": 0
      },
      "metrics": {
        "emSize": 1024,
        "baseline": 6.25,
        "whitespace": 50
      },
      "embed": false,
      "showSelector": true,
      "selector": "class",
      "classSelector": ".pna"
    },
    "imagePref": {
      "prefix": "icon-",
      "png": true,
      "useClassSelector": true,
      "color": 0,
      "bgColor": 16777215,
      "classSelector": ".icon"
    },
    "historySize": 50,
    "showCodes": false,
    "gridSize": 16,
    "showGrid": true,
    "showLiga": false
  }
}